{
    "count": 371,
    "next": "http://navaras.com/movie/api/?format=json&genre=action&page=3",
    "previous": "http://navaras.com/movie/api/?format=json&genre=action",
    "results": [
        {
            "url": "http://navaras.com/movie/api/869/?format=json",
            "title": "Aatagadu",
            "description": "",
            "year": 1980,
            "img": "",
            "duration": "00:00:11",
            "playLink": "",
            "genre": "Action",
            "language": "",
            "active": null,
            "directedBy": "Rama Rao Tatineni",
            "producedBy": "",
            "musicBy": "",
            "staring": "N. T. Rama Rao",
            "wikiLink": null,
            "lastUpdate": null
        },
        {
            "url": "http://navaras.com/movie/api/874/?format=json",
            "title": "Gajadonga",
            "description": "",
            "year": 1980,
            "img": "",
            "duration": "00:00:11",
            "playLink": "",
            "genre": "Action",
            "language": "",
            "active": null,
            "directedBy": "K. Raghavendra Rao",
            "producedBy": "",
            "musicBy": "",
            "staring": "N. T. Rama Rao",
            "wikiLink": null,
            "lastUpdate": null
        },
        {
            "url": "http://navaras.com/movie/api/1269/?format=json",
            "title": "Aagraham",
            "description": "",
            "year": 1991,
            "img": "",
            "duration": "00:00:11",
            "playLink": "",
            "genre": "Action",
            "language": "",
            "active": null,
            "directedBy": "K. S. Ravikumar",
            "producedBy": "",
            "musicBy": "",
            "staring": "Rajasekhar, Amala",
            "wikiLink": null,
            "lastUpdate": null
        },
        {
            "url": "http://navaras.com/movie/api/1270/?format=json",
            "title": "Aditya 369",
            "description": "",
            "year": 1991,
            "img": "/wiki/Aditya_369",
            "duration": "00:00:11",
            "playLink": "",
            "genre": "Action",
            "language": "",
            "active": null,
            "directedBy": "Singeetham Sreenivasa Rao",
            "producedBy": "",
            "musicBy": "",
            "staring": "Balakrishna, Mohini, Tarun, Tinnu Anand",
            "wikiLink": null,
            "lastUpdate": null
        },
        {
            "url": "http://navaras.com/movie/api/1277/?format=json",
            "title": "Assembly Rowdy",
            "description": "",
            "year": 1991,
            "img": "/wiki/Assembly_Rowdy",
            "duration": "00:00:11",
            "playLink": "",
            "genre": "Action",
            "language": "",
            "active": null,
            "directedBy": "B. Gopal",
            "producedBy": "",
            "musicBy": "",
            "staring": "Mohan Babu, Divya Bharati, Brahmanandam",
            "wikiLink": null,
            "lastUpdate": null
        },
        {
            "url": "http://navaras.com/movie/api/1282/?format=json",
            "title": "Bharat Bandh",
            "description": "",
            "year": 1991,
            "img": "",
            "duration": "00:00:11",
            "playLink": "",
            "genre": "Action",
            "language": "",
            "active": null,
            "directedBy": "Kodi Ramakrishna",
            "producedBy": "",
            "musicBy": "",
            "staring": "Vinod Kumar, Archana, Rami Reddy",
            "wikiLink": null,
            "lastUpdate": null
        },
        {
            "url": "http://navaras.com/movie/api/1283/?format=json",
            "title": "Bhargava",
            "description": "",
            "year": 1991,
            "img": "",
            "duration": "00:00:11",
            "playLink": "",
            "genre": "Action",
            "language": "",
            "active": null,
            "directedBy": "R. S. Ramaraju",
            "producedBy": "",
            "musicBy": "",
            "staring": "Suman, Bindhiya",
            "wikiLink": null,
            "lastUpdate": null
        },
        {
            "url": "http://navaras.com/movie/api/1287/?format=json",
            "title": "Coolie No.1",
            "description": "",
            "year": 1991,
            "img": "/wiki/Coolie_No._1_(1991_film)",
            "duration": "00:00:11",
            "playLink": "",
            "genre": "Action",
            "language": "",
            "active": null,
            "directedBy": "K. Raghavendra Rao",
            "producedBy": "",
            "musicBy": "",
            "staring": "Daggubati Venkatesh, Tabu, Mohan Babu, Rao Gopal Rao",
            "wikiLink": null,
            "lastUpdate": null
        },
        {
            "url": "http://navaras.com/movie/api/1612/?format=json",
            "title": "Annayya",
            "description": "",
            "year": 2000,
            "img": "/wiki/Annayya_(2000_film)",
            "duration": "00:00:11",
            "playLink": "",
            "genre": "Drama / Action",
            "language": "",
            "active": null,
            "directedBy": "Mutyala Subbayya",
            "producedBy": "",
            "musicBy": "",
            "staring": "Chiranjeevi, Ravi Teja, Soundarya, Simran, Sharath Babu",
            "wikiLink": null,
            "lastUpdate": null
        },
        {
            "url": "http://navaras.com/movie/api/1614/?format=json",
            "title": "Vamsoddarakudu",
            "description": "",
            "year": 2000,
            "img": "/wiki/Vamsoddarakudu",
            "duration": "00:00:11",
            "playLink": "",
            "genre": "Action",
            "language": "",
            "active": null,
            "directedBy": "Sharath",
            "producedBy": "",
            "musicBy": "",
            "staring": "Balakrishna Nandamuri, Sakshi Shivanand, Ramya Krishna, Krishnam Raju",
            "wikiLink": null,
            "lastUpdate": null
        }
    ]
}