{
    "count": 371,
    "next": "http://navaras.com/movie/api/?format=json&genre=action&page=2",
    "previous": null,
    "results": [
        {
            "url": "http://navaras.com/movie/api/3087/?format=json",
            "title": "Khaidi No. 150",
            "description": "",
            "year": 2017,
            "img": "https://upload.wikimedia.org/wikipedia/en/0/0e/Chiranjeevi%27s_Khaidi_No.150_poster.jpg",
            "duration": "00:00:11",
            "playLink": "",
            "genre": "Action drama",
            "language": "",
            "active": null,
            "directedBy": "V. V. Vinayak",
            "producedBy": "Konidela Production Company",
            "musicBy": "",
            "staring": "Chiranjeevi, Kajal Aggarwal, Tarun Arora",
            "wikiLink": null,
            "lastUpdate": "2020-08-21T17:47:06.334153Z"
        },
        {
            "url": "http://navaras.com/movie/api/23/?format=json",
            "title": "Sumangali",
            "description": "",
            "year": 1940,
            "img": "https://upload.wikimedia.org/wikipedia/en/4/4a/Sumangali_1940_poster.jpg",
            "duration": "00:00:11",
            "playLink": "",
            "genre": "Action",
            "language": "",
            "active": null,
            "directedBy": "B.N. Reddi",
            "producedBy": "",
            "musicBy": "",
            "staring": "Chittor V. Nagaiah, Giri A.S, Kumari, Malathi",
            "wikiLink": null,
            "lastUpdate": "2020-08-19T16:18:56.821162Z"
        },
        {
            "url": "http://navaras.com/movie/api/342/?format=json",
            "title": "Anaganaga Oka Raju",
            "description": "",
            "year": 1959,
            "img": "/wiki/Nadodi_Mannan_(1958_film)",
            "duration": "00:00:11",
            "playLink": "",
            "genre": "Action-Adventure",
            "language": "",
            "active": null,
            "directedBy": "M. G. Ramachandran",
            "producedBy": "",
            "musicBy": "S. M. Subbaiah Naidu, N. S. Balakrishnan",
            "staring": "M. G. Ramachandran, Bhanumathi",
            "wikiLink": null,
            "lastUpdate": null
        },
        {
            "url": "http://navaras.com/movie/api/559/?format=json",
            "title": "Goodachari 116",
            "description": "",
            "year": 1967,
            "img": "/wiki/Goodachari_116",
            "duration": "00:00:11",
            "playLink": "",
            "genre": "Action",
            "language": "",
            "active": null,
            "directedBy": "M. Mallikharjuna Rao",
            "producedBy": "",
            "musicBy": "",
            "staring": "Krishna, Jayalalitha",
            "wikiLink": null,
            "lastUpdate": null
        },
        {
            "url": "http://navaras.com/movie/api/645/?format=json",
            "title": "Raja Simha",
            "description": "",
            "year": 1969,
            "img": "",
            "duration": "00:00:11",
            "playLink": "",
            "genre": "Action",
            "language": "",
            "active": null,
            "directedBy": "K. Sbharamadas",
            "producedBy": "",
            "musicBy": "",
            "staring": "Vanisree",
            "wikiLink": null,
            "lastUpdate": null
        },
        {
            "url": "http://navaras.com/movie/api/712/?format=json",
            "title": "Raj Mahal",
            "description": "",
            "year": 1972,
            "img": "",
            "duration": "00:00:11",
            "playLink": "",
            "genre": "Action",
            "language": "",
            "active": null,
            "directedBy": "",
            "producedBy": "",
            "musicBy": "",
            "staring": "Krishna, Kishnamraju",
            "wikiLink": null,
            "lastUpdate": null
        },
        {
            "url": "http://navaras.com/movie/api/715/?format=json",
            "title": "Hantakulu Devantakulu",
            "description": "",
            "year": 1972,
            "img": "",
            "duration": "00:00:11",
            "playLink": "",
            "genre": "Action",
            "language": "",
            "active": null,
            "directedBy": "",
            "producedBy": "",
            "musicBy": "",
            "staring": "Krishna",
            "wikiLink": null,
            "lastUpdate": null
        },
        {
            "url": "http://navaras.com/movie/api/717/?format=json",
            "title": "Bhale Mosagadu",
            "description": "",
            "year": 1972,
            "img": "",
            "duration": "00:00:11",
            "playLink": "",
            "genre": "Action",
            "language": "",
            "active": null,
            "directedBy": "",
            "producedBy": "",
            "musicBy": "",
            "staring": "Krihsna",
            "wikiLink": null,
            "lastUpdate": null
        },
        {
            "url": "http://navaras.com/movie/api/791/?format=json",
            "title": "Annadammula Anubandham",
            "description": "",
            "year": 1975,
            "img": "/wiki/Annadammula_Anubandham",
            "duration": "00:00:11",
            "playLink": "",
            "genre": "Action",
            "language": "",
            "active": null,
            "directedBy": "S. D. Lal",
            "producedBy": "",
            "musicBy": "",
            "staring": "N. T. Rama Rao, Latha",
            "wikiLink": null,
            "lastUpdate": null
        },
        {
            "url": "http://navaras.com/movie/api/868/?format=json",
            "title": "Aarani Mantalu",
            "description": "",
            "year": 1980,
            "img": "/wiki/Aarani_Mantalu",
            "duration": "00:00:11",
            "playLink": "",
            "genre": "Action, Drama",
            "language": "",
            "active": null,
            "directedBy": "K. Vasu",
            "producedBy": "",
            "musicBy": "",
            "staring": "Chiranjeevi, Kavitha",
            "wikiLink": null,
            "lastUpdate": null
        }
    ]
}